wave.vcd
$version Generated by VerilatedVcd $end
$timescale 1ps $end
 $scope module TOP $end
  $var wire 1 # clk $end
  $var wire 1 $ reset_n $end
  $var wire 1 % battery_connected $end
  $var wire 1 & battery_full $end
  $var wire 2 ' grid_state [1:0] $end
  $var wire 1 ( ml_predict_instability $end
  $var wire 1 ) fault_flag $end
  $var wire 1 * charge_enable $end
  $var wire 1 + relay_active $end
  $var wire 4 , fault_code [3:0] $end
  $scope module sc_dut $end
   $var wire 1 # clk $end
   $var wire 1 $ reset_n $end
   $var wire 1 % battery_connected $end
   $var wire 1 & battery_full $end
   $var wire 2 ' grid_state [1:0] $end
   $var wire 1 ( ml_predict_instability $end
   $var wire 1 ) fault_flag $end
   $var wire 1 * charge_enable $end
   $var wire 1 + relay_active $end
   $var wire 4 , fault_code [3:0] $end
   $scope module sc_fsm_bus $end
    $var wire 2 ' grid_state [1:0] $end
    $var wire 3 . current_state [2:0] $end
    $var wire 1 3 fault_flag $end
    $var wire 4 4 fault_code [3:0] $end
    $var wire 1 / charge_enable $end
    $var wire 1 0 relay_activation $end
    $var wire 1 % battery_connected $end
    $var wire 1 & battery_full $end
    $var wire 1 5 ml_predict_instability $end
   $upscope $end
   $scope module sc_safety_bus $end
    $var wire 2 6 grid_state [1:0] $end
    $var wire 3 7 current_state [2:0] $end
    $var wire 1 1 fault_flag $end
    $var wire 4 2 fault_code [3:0] $end
    $var wire 1 8 charge_enable $end
    $var wire 1 9 relay_activation $end
    $var wire 1 : battery_connected $end
    $var wire 1 ; battery_full $end
    $var wire 1 ( ml_predict_instability $end
   $upscope $end
   $scope module u_fsm $end
    $var wire 1 # clk $end
    $var wire 1 $ reset_n $end
    $scope module fsm_bus $end
     $var wire 2 ' grid_state [1:0] $end
     $var wire 3 . current_state [2:0] $end
     $var wire 1 3 fault_flag $end
     $var wire 4 4 fault_code [3:0] $end
     $var wire 1 / charge_enable $end
     $var wire 1 0 relay_activation $end
     $var wire 1 % battery_connected $end
     $var wire 1 & battery_full $end
     $var wire 1 5 ml_predict_instability $end
    $upscope $end
    $var wire 2 ' grid_state_enum [1:0] $end
    $var wire 3 - next_state [2:0] $end
   $upscope $end
   $scope module u_safety $end
    $var wire 1 $ reset_n $end
    $scope module safety_bus $end
     $var wire 2 6 grid_state [1:0] $end
     $var wire 3 7 current_state [2:0] $end
     $var wire 1 1 fault_flag $end
     $var wire 4 2 fault_code [3:0] $end
     $var wire 1 8 charge_enable $end
     $var wire 1 9 relay_activation $end
     $var wire 1 : battery_connected $end
     $var wire 1 ; battery_full $end
     $var wire 1 ( ml_predict_instability $end
    $upscope $end
   $upscope $end
  $upscope $end
 $upscope $end
$enddefinitions $end


#0
0#
1$
1%
0&
b10 '
0(
0)
0*
0+
b0000 ,
b000 -
b100 .
0/
00
01
b0000 2
03
b0000 4
05
b00 6
b000 7
08
09
0:
0;
#10
1#
b100 -
b000 .
#20
0#
#30
1#
b000 -
b100 .
#40
0#
#50
1#
b100 -
b000 .
#60
0#
#70
1#
b000 -
b100 .
#80
0#
#90
1#
b100 -
b000 .
#100
0#
#110
1#
b000 -
b100 .
#120
0#
#130
1#
b100 -
b000 .
#140
0#
#150
1#
b000 -
b100 .
#160
0#
#170
1#
b100 -
b000 .
#180
0#
#190
1#
b000 -
b100 .
#200
0#
#210
1#
b100 -
b000 .
#220
0#
#230
1#
b000 -
b100 .
#240
0#
#250
1#
b100 -
b000 .
#260
0#
#270
1#
b000 -
b100 .
#280
0#
#290
1#
b100 -
b000 .
#300
0#
#310
1#
b000 -
b100 .
#320
0#
#330
1#
b100 -
b000 .
#340
0#
#350
1#
b000 -
b100 .
#360
0#
#370
1#
b100 -
b000 .
#380
0#
#390
1#
b000 -
b100 .
#400
0#
#410
1#
b100 -
b000 .
#420
0#
#430
1#
b000 -
b100 .
#440
0#
#450
1#
b100 -
b000 .
#460
0#
#470
1#
b000 -
b100 .
#480
0#
#490
1#
b100 -
b000 .
#500
0#
#510
1#
b000 -
b100 .
#520
0#
#530
1#
b100 -
b000 .
#540
0#
#550
1#
b000 -
b100 .
#560
0#
#570
1#
b100 -
b000 .
#580
0#
#590
1#
b000 -
b100 .
#600
0#
#610
1#
b100 -
b000 .
#620
0#
#630
1#
b000 -
b100 .
#640
0#
#650
1#
b100 -
b000 .
#660
0#
#670
1#
b000 -
b100 .
#680
0#
#690
1#
b100 -
b000 .
#700
0#
#710
1#
b000 -
b100 .
#720
0#
#730
1#
b100 -
b000 .
#740
0#
#750
1#
b000 -
b100 .
#760
0#
#770
1#
b100 -
b000 .
#780
0#
#790
1#
b000 -
b100 .
#800
0#
#810
1#
b100 -
b000 .
#820
0#
#830
1#
b000 -
b100 .
#840
0#
#850
1#
b100 -
b000 .
#860
0#
#870
1#
b000 -
b100 .
#880
0#
#890
1#
b100 -
b000 .
#900
0#
#910
1#
b000 -
b100 .
#920
0#
#930
1#
b100 -
b000 .
#940
0#
#950
1#
b000 -
b100 .
#960
0#
#970
1#
b100 -
b000 .
#980
0#
#990
1#
b000 -
b100 .
#1000
0#
#1010
1#
b100 -
b000 .
#1020
0#
#1030
1#
b000 -
b100 .
#1040
0#
#1050
1#
b100 -
b000 .
#1060
0#
#1070
1#
b000 -
b100 .
#1080
0#
#1090
1#
b100 -
b000 .
#1100
0#
#1110
1#
b000 -
b100 .
#1120
0#
#1130
1#
b100 -
b000 .
#1140
0#
#1150
1#
b000 -
b100 .
#1160
0#
#1170
1#
b100 -
b000 .
#1180
0#
#1190
1#
b000 -
b100 .
#1200
0#
#1210
1#
b100 -
b000 .
#1220
0#
#1230
1#
b000 -
b100 .
#1240
0#
#1250
1#
b100 -
b000 .
#1260
0#
#1270
1#
b000 -
b100 .
#1280
0#
#1290
1#
b100 -
b000 .
#1300
0#
#1310
1#
b000 -
b100 .
#1320
0#
#1330
1#
b100 -
b000 .
#1340
0#
#1350
1#
b000 -
b100 .
#1360
0#
#1370
1#
b100 -
b000 .
#1380
0#
#1390
1#
b000 -
b100 .
#1400
0#
#1410
1#
b100 -
b000 .
#1420
0#
#1430
1#
b000 -
b100 .
#1440
0#
#1450
1#
b100 -
b000 .
#1460
0#
#1470
1#
b000 -
b100 .
#1480
0#
#1490
1#
b100 -
b000 .
#1500
0#
#1510
1#
b000 -
b100 .
#1520
0#
#1530
1#
b100 -
b000 .
#1540
0#
#1550
1#
b000 -
b100 .
#1560
0#
#1570
1#
b100 -
b000 .
#1580
0#
#1590
1#
b000 -
b100 .
#1600
0#
#1610
1#
b100 -
b000 .
#1620
0#
#1630
1#
b000 -
b100 .
#1640
0#
#1650
1#
b100 -
b000 .
#1660
0#
#1670
1#
b000 -
b100 .
#1680
0#
#1690
1#
b100 -
b000 .
#1700
0#
#1710
1#
b000 -
b100 .
#1720
0#
#1730
1#
b100 -
b000 .
#1740
0#
#1750
1#
b000 -
b100 .
#1760
0#
#1770
1#
b100 -
b000 .
#1780
0#
#1790
1#
b000 -
b100 .
#1800
0#
#1810
1#
b100 -
b000 .
#1820
0#
#1830
1#
b000 -
b100 .
#1840
0#
#1850
1#
b100 -
b000 .
#1860
0#
#1870
1#
b000 -
b100 .
#1880
0#
#1890
1#
b100 -
b000 .
#1900
0#
#1910
1#
b000 -
b100 .
#1920
0#
#1930
1#
b100 -
b000 .
#1940
0#
#1950
1#
b000 -
b100 .
#1960
0#
#1970
1#
b100 -
b000 .
#1980
0#
#1990
1#
b000 -
b100 .
#2000
0#
#2010
1#
b100 -
b000 .
#2020
0#
#2030
1#
b000 -
b100 .
#2040
0#
#2050
1#
b100 -
b000 .
#2060
0#
#2070
1#
b000 -
b100 .
#2080
0#
#2090
1#
b100 -
b000 .
#2100
0#
#2110
1#
b000 -
b100 .
#2120
0#
#2130
1#
b100 -
b000 .
#2140
0#
#2150
1#
b000 -
b100 .
#2160
0#
#2170
1#
b100 -
b000 .
#2180
0#
#2190
1#
b000 -
b100 .
#2200
0#
#2210
1#
b100 -
b000 .
#2220
0#
#2230
1#
b000 -
b100 .
#2240
0#
#2250
1#
b100 -
b000 .
#2260
0#
#2270
1#
b000 -
b100 .
#2280
0#
#2290
1#
b100 -
b000 .
#2300
0#
#2310
1#
b000 -
b100 .
#2320
0#
#2330
1#
b100 -
b000 .
#2340
0#
#2350
1#
b000 -
b100 .
#2360
0#
#2370
1#
b100 -
b000 .
#2380
0#
#2390
1#
b000 -
b100 .
#2400
0#
#2410
1#
b100 -
b000 .
#2420
0#
#2430
1#
b000 -
b100 .
#2440
0#
#2450
1#
b100 -
b000 .
#2460
0#
#2470
1#
b000 -
b100 .
#2480
0#
#2490
1#
b100 -
b000 .
#2500
0#
#2510
1#
b000 -
b100 .
#2520
0#
#2530
1#
b100 -
b000 .
#2540
0#
#2550
1#
b000 -
b100 .
#2560
0#
#2570
1#
b100 -
b000 .
#2580
0#
#2590
1#
b000 -
b100 .
#2600
0#
#2610
1#
b100 -
b000 .
#2620
0#
#2630
1#
b000 -
b100 .
#2640
0#
#2650
1#
b100 -
b000 .
#2660
0#
#2670
1#
b000 -
b100 .
#2680
0#
#2690
1#
b100 -
b000 .
#2700
0#
#2710
1#
b000 -
b100 .
#2720
0#
#2730
1#
b100 -
b000 .
#2740
0#
#2750
1#
b000 -
b100 .
#2760
0#
#2770
1#
b100 -
b000 .
#2780
0#
#2790
1#
b000 -
b100 .
#2800
0#
#2810
1#
b100 -
b000 .
#2820
0#
#2830
1#
b000 -
b100 .
#2840
0#
#2850
1#
b100 -
b000 .
#2860
0#
#2870
1#
b000 -
b100 .
#2880
0#
#2890
1#
b100 -
b000 .
#2900
0#
#2910
1#
b000 -
b100 .
#2920
0#
#2930
1#
b100 -
b000 .
#2940
0#
#2950
1#
b000 -
b100 .
#2960
0#
#2970
1#
b100 -
b000 .
#2980
0#
#2990
1#
b000 -
b100 .
#3000
0#
#3010
1#
b100 -
b000 .
#3020
0#
#3030
1#
b000 -
b100 .
#3040
0#
#3050
1#
b100 -
b000 .
#3060
0#
#3070
1#
b000 -
b100 .
#3080
0#
#3090
1#
b100 -
b000 .
#3100
0#
#3110
1#
b000 -
b100 .
#3120
0#
#3130
1#
b100 -
b000 .
#3140
0#
#3150
1#
b000 -
b100 .
#3160
0#
#3170
1#
b100 -
b000 .
#3180
0#
#3190
1#
b000 -
b100 .
#3200
0#
#3210
1#
b100 -
b000 .
#3220
0#
#3230
1#
b000 -
b100 .
#3240
0#
#3250
1#
b100 -
b000 .
#3260
0#
#3270
1#
b000 -
b100 .
#3280
0#
#3290
1#
b100 -
b000 .
#3300
0#
#3310
1#
b000 -
b100 .
#3320
0#
#3330
1#
b100 -
b000 .
#3340
0#
#3350
1#
b000 -
b100 .
#3360
0#
#3370
1#
b100 -
b000 .
#3380
0#
#3390
1#
b000 -
b100 .
#3400
0#
#3410
1#
b100 -
b000 .
#3420
0#
#3430
1#
b000 -
b100 .
#3440
0#
#3450
1#
b100 -
b000 .
#3460
0#
#3470
1#
b000 -
b100 .
#3480
0#
#3490
1#
b100 -
b000 .
#3500
0#
#3510
1#
b000 -
b100 .
#3520
0#
#3530
1#
b100 -
b000 .
#3540
0#
#3550
1#
b000 -
b100 .
#3560
0#
#3570
1#
b100 -
b000 .
#3580
0#
#3590
1#
b000 -
b100 .
#3600
0#
#3610
1#
b100 -
b000 .
#3620
0#
#3630
1#
b000 -
b100 .
#3640
0#
#3650
1#
b100 -
b000 .
#3660
0#
#3670
1#
b000 -
b100 .
#3680
0#
#3690
1#
b100 -
b000 .
#3700
0#
#3710
1#
b000 -
b100 .
#3720
0#
#3730
1#
b100 -
b000 .
#3740
0#
#3750
1#
b000 -
b100 .
#3760
0#
#3770
1#
b100 -
b000 .
#3780
0#
#3790
1#
b000 -
b100 .
#3800
0#
#3810
1#
b100 -
b000 .
#3820
0#
#3830
1#
b000 -
b100 .
#3840
0#
#3850
1#
b100 -
b000 .
#3860
0#
#3870
1#
b000 -
b100 .
#3880
0#
#3890
1#
b100 -
b000 .
#3900
0#
#3910
1#
b000 -
b100 .
#3920
0#
#3930
1#
b100 -
b000 .
#3940
0#
#3950
1#
b000 -
b100 .
#3960
0#
#3970
1#
b100 -
b000 .
#3980
0#
#3990
1#
b000 -
b100 .
#4000
0#
#4010
1#
b100 -
b000 .
#4020
0#
#4030
1#
b000 -
b100 .
#4040
0#
#4050
1#
b100 -
b000 .
#4060
0#
#4070
1#
b000 -
b100 .
#4080
0#
#4090
1#
b100 -
b000 .
#4100
0#
#4110
1#
b000 -
b100 .
#4120
0#
#4130
1#
b100 -
b000 .
#4140
0#
#4150
1#
b000 -
b100 .
#4160
0#
#4170
1#
b100 -
b000 .
#4180
0#
#4190
1#
b000 -
b100 .
#4200
0#
#4210
1#
b100 -
b000 .
#4220
0#
#4230
1#
b000 -
b100 .
#4240
0#
#4250
1#
b100 -
b000 .
#4260
0#
#4270
1#
b000 -
b100 .
#4280
0#
#4290
1#
b100 -
b000 .
#4300
0#
#4310
1#
b000 -
b100 .
#4320
0#
#4330
1#
b100 -
b000 .
#4340
0#
#4350
1#
b000 -
b100 .
#4360
0#
#4370
1#
b100 -
b000 .
#4380
0#
#4390
1#
b000 -
b100 .
#4400
0#
#4410
1#
b100 -
b000 .
#4420
0#
#4430
1#
b000 -
b100 .
#4440
0#
#4450
1#
b100 -
b000 .
#4460
0#
#4470
1#
b000 -
b100 .
#4480
0#
#4490
1#
b100 -
b000 .
#4500
0#
#4510
1#
b000 -
b100 .
#4520
0#
#4530
1#
b100 -
b000 .
#4540
0#
#4550
1#
b000 -
b100 .
#4560
0#
#4570
1#
b100 -
b000 .
#4580
0#
#4590
1#
b000 -
b100 .
#4600
0#
#4610
1#
b100 -
b000 .
#4620
0#
#4630
1#
b000 -
b100 .
#4640
0#
#4650
1#
b100 -
b000 .
#4660
0#
#4670
1#
b000 -
b100 .
#4680
0#
#4690
1#
b100 -
b000 .
#4700
0#
#4710
1#
b000 -
b100 .
#4720
0#
#4730
1#
b100 -
b000 .
#4740
0#
#4750
1#
b000 -
b100 .
#4760
0#
#4770
1#
b100 -
b000 .
#4780
0#
#4790
1#
b000 -
b100 .
#4800
0#
#4810
1#
b100 -
b000 .
#4820
0#
#4830
1#
b000 -
b100 .
#4840
0#
#4850
1#
b100 -
b000 .
#4860
0#
#4870
1#
b000 -
b100 .
#4880
0#
#4890
1#
b100 -
b000 .
#4900
0#
#4910
1#
b000 -
b100 .
#4920
0#
#4930
1#
b100 -
b000 .
#4940
0#
#4950
1#
b000 -
b100 .
#4960
0#
#4970
1#
b100 -
b000 .
#4980
0#
#4990
1#
b000 -
b100 .
#5000
0#
#5010
1#
b100 -
b000 .
#5020
0#
#5030
1#
b000 -
b100 .
#5040
0#
#5050
1#
b100 -
b000 .
#5060
0#
#5070
1#
b000 -
b100 .
#5080
0#
#5090
1#
b100 -
b000 .
#5100
0#
#5110
1#
b000 -
b100 .
#5120
0#
#5130
1#
b100 -
b000 .
#5140
0#
#5150
1#
b000 -
b100 .
#5160
0#
#5170
1#
b100 -
b000 .
#5180
0#
#5190
1#
b000 -
b100 .
#5200
0#
#5210
1#
b100 -
b000 .
#5220
0#
#5230
1#
b000 -
b100 .
#5240
0#
#5250
1#
b100 -
b000 .
#5260
0#
#5270
1#
b000 -
b100 .
#5280
0#
#5290
1#
b100 -
b000 .
#5300
0#
#5310
1#
b000 -
b100 .
#5320
0#
#5330
1#
b100 -
b000 .
#5340
0#
#5350
1#
b000 -
b100 .
#5360
0#
#5370
1#
b100 -
b000 .
#5380
0#
#5390
1#
b000 -
b100 .
#5400
0#
#5410
1#
b100 -
b000 .
#5420
0#
#5430
1#
b000 -
b100 .
#5440
0#
#5450
1#
b100 -
b000 .
#5460
0#
#5470
1#
b000 -
b100 .
#5480
0#
#5490
1#
b100 -
b000 .
#5500
0#
#5510
1#
b000 -
b100 .
#5520
0#
#5530
1#
b100 -
b000 .
#5540
0#
#5550
1#
b000 -
b100 .
#5560
0#
#5570
1#
b100 -
b000 .
#5580
0#
#5590
1#
b000 -
b100 .
#5600
0#
#5610
1#
b100 -
b000 .
#5620
0#
#5630
1#
b000 -
b100 .
#5640
0#
#5650
1#
b100 -
b000 .
#5660
0#
#5670
1#
b000 -
b100 .
#5680
0#
#5690
1#
b100 -
b000 .
#5700
0#
#5710
1#
b000 -
b100 .
#5720
0#
#5730
1#
b100 -
b000 .
#5740
0#
#5750
1#
b000 -
b100 .
#5760
0#
#5770
1#
b100 -
b000 .
#5780
0#
#5790
1#
b000 -
b100 .
#5800
0#
#5810
1#
b100 -
b000 .
#5820
0#
#5830
1#
b000 -
b100 .
#5840
0#
#5850
1#
b100 -
b000 .
#5860
0#
#5870
1#
b000 -
b100 .
#5880
0#
#5890
1#
b100 -
b000 .
#5900
0#
#5910
1#
b000 -
b100 .
#5920
0#
#5930
1#
b100 -
b000 .
#5940
0#
#5950
1#
b000 -
b100 .
#5960
0#
#5970
1#
b100 -
b000 .
#5980
0#
#5990
1#
b000 -
b100 .
#6000
0#
#6010
1#
b100 -
b000 .
#6020
0#
#6030
1#
b000 -
b100 .
#6040
0#
#6050
1#
b100 -
b000 .
#6060
0#
#6070
1#
b000 -
b100 .
#6080
0#
#6090
1#
b100 -
b000 .
#6100
0#
#6110
1#
b000 -
b100 .
#6120
0#
#6130
1#
b100 -
b000 .
#6140
0#
#6150
1#
b000 -
b100 .
#6160
0#
#6170
1#
b100 -
b000 .
#6180
0#
#6190
1#
b000 -
b100 .
#6200
0#
#6210
1#
b100 -
b000 .
#6220
0#
#6230
1#
b000 -
b100 .
#6240
0#
#6250
1#
b100 -
b000 .
#6260
0#
#6270
1#
b000 -
b100 .
#6280
0#
#6290
1#
b100 -
b000 .
#6300
0#
#6310
1#
b000 -
b100 .
#6320
0#
#6330
1#
b100 -
b000 .
#6340
0#
#6350
1#
b000 -
b100 .
#6360
0#
#6370
1#
b100 -
b000 .
#6380
0#
#6390
1#
b000 -
b100 .
#6400
0#
#6410
1#
b100 -
b000 .
#6420
0#
#6430
1#
b000 -
b100 .
#6440
0#
#6450
1#
b100 -
b000 .
#6460
0#
#6470
1#
b000 -
b100 .
#6480
0#
#6490
1#
b100 -
b000 .
#6500
0#
#6510
1#
b000 -
b100 .
#6520
0#
#6530
1#
b100 -
b000 .
#6540
0#
#6550
1#
b000 -
b100 .
#6560
0#
#6570
1#
b100 -
b000 .
#6580
0#
#6590
1#
b000 -
b100 .
#6600
0#
#6610
1#
b100 -
b000 .
#6620
0#
#6630
1#
b000 -
b100 .
#6640
0#
#6650
1#
b100 -
b000 .
#6660
0#
#6670
1#
b000 -
b100 .
#6680
0#
#6690
1#
b100 -
b000 .
#6700
0#
#6710
1#
b000 -
b100 .
#6720
0#
#6730
1#
b100 -
b000 .
#6740
0#
#6750
1#
b000 -
b100 .
#6760
0#
#6770
1#
b100 -
b000 .
#6780
0#
#6790
1#
b000 -
b100 .
#6800
0#
#6810
1#
b100 -
b000 .
#6820
0#
#6830
1#
b000 -
b100 .
#6840
0#
#6850
1#
b100 -
b000 .
#6860
0#
#6870
1#
b000 -
b100 .
#6880
0#
#6890
1#
b100 -
b000 .
#6900
0#
#6910
1#
b000 -
b100 .
#6920
0#
#6930
1#
b100 -
b000 .
#6940
0#
#6950
1#
b000 -
b100 .
#6960
0#
#6970
1#
b100 -
b000 .
#6980
0#
#6990
1#
b000 -
b100 .
#7000
0#
#7010
1#
b100 -
b000 .
#7020
0#
#7030
1#
b000 -
b100 .
#7040
0#
#7050
1#
b100 -
b000 .
#7060
0#
#7070
1#
b000 -
b100 .
#7080
0#
#7090
1#
b100 -
b000 .
#7100
0#
#7110
1#
b000 -
b100 .
#7120
0#
#7130
1#
b100 -
b000 .
#7140
0#
#7150
1#
b000 -
b100 .
#7160
0#
#7170
1#
b100 -
b000 .
#7180
0#
#7190
1#
b000 -
b100 .
#7200
0#
#7210
1#
b100 -
b000 .
#7220
0#
#7230
1#
b000 -
b100 .
#7240
0#
#7250
1#
b100 -
b000 .
#7260
0#
#7270
1#
b000 -
b100 .
#7280
0#
#7290
1#
b100 -
b000 .
#7300
0#
#7310
1#
b000 -
b100 .
#7320
0#
#7330
1#
b100 -
b000 .
#7340
0#
#7350
1#
b000 -
b100 .
#7360
0#
#7370
1#
b100 -
b000 .
#7380
0#
#7390
1#
b000 -
b100 .
#7400
0#
#7410
1#
b100 -
b000 .
#7420
0#
#7430
1#
b000 -
b100 .
#7440
0#
#7450
1#
b100 -
b000 .
#7460
0#
#7470
1#
b000 -
b100 .
#7480
0#
#7490
1#
b100 -
b000 .
#7500
0#
#7510
1#
b000 -
b100 .
#7520
0#
#7530
1#
b100 -
b000 .
#7540
0#
#7550
1#
b000 -
b100 .
#7560
0#
#7570
1#
b100 -
b000 .
#7580
0#
#7590
1#
b000 -
b100 .
#7600
0#
#7610
1#
b100 -
b000 .
#7620
0#
#7630
1#
b000 -
b100 .
#7640
0#
#7650
1#
b100 -
b000 .
#7660
0#
#7670
1#
b000 -
b100 .
#7680
0#
#7690
1#
b100 -
b000 .
#7700
0#
#7710
1#
b000 -
b100 .
#7720
0#
#7730
1#
b100 -
b000 .
#7740
0#
#7750
1#
b000 -
b100 .
#7760
0#
#7770
1#
b100 -
b000 .
#7780
0#
#7790
1#
b000 -
b100 .
#7800
0#
#7810
1#
b100 -
b000 .
#7820
0#
#7830
1#
b000 -
b100 .
#7840
0#
#7850
1#
b100 -
b000 .
#7860
0#
#7870
1#
b000 -
b100 .
#7880
0#
#7890
1#
b100 -
b000 .
#7900
0#
#7910
1#
b000 -
b100 .
#7920
0#
#7930
1#
b100 -
b000 .
#7940
0#
#7950
1#
b000 -
b100 .
#7960
0#
#7970
1#
b100 -
b000 .
#7980
0#
#7990
1#
b000 -
b100 .
#8000
0#
#8010
1#
b100 -
b000 .
#8020
0#
#8030
1#
b000 -
b100 .
#8040
0#
#8050
1#
b100 -
b000 .
#8060
0#
#8070
1#
b000 -
b100 .
#8080
0#
#8090
1#
b100 -
b000 .
#8100
0#
#8110
1#
b000 -
b100 .
#8120
0#
#8130
1#
b100 -
b000 .
#8140
0#
#8150
1#
b000 -
b100 .
#8160
0#
#8170
1#
b100 -
b000 .
#8180
0#
#8190
1#
b000 -
b100 .
#8200
0#
#8210
1#
b100 -
b000 .
#8220
0#
#8230
1#
b000 -
b100 .
#8240
0#
#8250
1#
b100 -
b000 .
#8260
0#
#8270
1#
b000 -
b100 .
#8280
0#
#8290
1#
b100 -
b000 .
#8300
0#
#8310
1#
b000 -
b100 .
#8320
0#
#8330
1#
b100 -
b000 .
#8340
0#
#8350
1#
b000 -
b100 .
#8360
0#
#8370
1#
b100 -
b000 .
#8380
0#
#8390
1#
b000 -
b100 .
#8400
0#
#8410
1#
b100 -
b000 .
#8420
0#
#8430
1#
b000 -
b100 .
#8440
0#
#8450
1#
b100 -
b000 .
#8460
0#
#8470
1#
b000 -
b100 .
#8480
0#
#8490
1#
b100 -
b000 .
#8500
0#
#8510
1#
b000 -
b100 .
#8520
0#
#8530
1#
b100 -
b000 .
#8540
0#
#8550
1#
b000 -
b100 .
#8560
0#
#8570
1#
b100 -
b000 .
#8580
0#
#8590
1#
b000 -
b100 .
#8600
0#
#8610
1#
b100 -
b000 .
#8620
0#
#8630
1#
b000 -
b100 .
#8640
0#
#8650
1#
b100 -
b000 .
#8660
0#
#8670
1#
b000 -
b100 .
#8680
0#
#8690
1#
b100 -
b000 .
#8700
0#
#8710
1#
b000 -
b100 .
#8720
0#
#8730
1#
b100 -
b000 .
#8740
0#
#8750
1#
b000 -
b100 .
#8760
0#
#8770
1#
b100 -
b000 .
#8780
0#
#8790
1#
b000 -
b100 .
#8800
0#
#8810
1#
b100 -
b000 .
#8820
0#
#8830
1#
b000 -
b100 .
#8840
0#
#8850
1#
b100 -
b000 .
#8860
0#
#8870
1#
b000 -
b100 .
#8880
0#
#8890
1#
b100 -
b000 .
#8900
0#
#8910
1#
b000 -
b100 .
#8920
0#
#8930
1#
b100 -
b000 .
#8940
0#
#8950
1#
b000 -
b100 .
#8960
0#
#8970
1#
b100 -
b000 .
#8980
0#
#8990
1#
b000 -
b100 .
#9000
0#
#9010
1#
b100 -
b000 .
#9020
0#
#9030
1#
b000 -
b100 .
#9040
0#
#9050
1#
b100 -
b000 .
#9060
0#
#9070
1#
b000 -
b100 .
#9080
0#
#9090
1#
b100 -
b000 .
#9100
0#
#9110
1#
b000 -
b100 .
#9120
0#
#9130
1#
b100 -
b000 .
#9140
0#
#9150
1#
b000 -
b100 .
#9160
0#
#9170
1#
b100 -
b000 .
#9180
0#
#9190
1#
b000 -
b100 .
#9200
0#
#9210
1#
b100 -
b000 .
#9220
0#
#9230
1#
b000 -
b100 .
#9240
0#
#9250
1#
b100 -
b000 .
#9260
0#
#9270
1#
b000 -
b100 .
#9280
0#
#9290
1#
b100 -
b000 .
#9300
0#
#9310
1#
b000 -
b100 .
#9320
0#
#9330
1#
b100 -
b000 .
#9340
0#
#9350
1#
b000 -
b100 .
#9360
0#
#9370
1#
b100 -
b000 .
#9380
0#
#9390
1#
b000 -
b100 .
#9400
0#
#9410
1#
b100 -
b000 .
#9420
0#
#9430
1#
b000 -
b100 .
#9440
0#
#9450
1#
b100 -
b000 .
#9460
0#
#9470
1#
b000 -
b100 .
#9480
0#
#9490
1#
b100 -
b000 .
#9500
0#
#9510
1#
b000 -
b100 .
#9520
0#
#9530
1#
b100 -
b000 .
#9540
0#
#9550
1#
b000 -
b100 .
#9560
0#
#9570
1#
b100 -
b000 .
#9580
0#
#9590
1#
b000 -
b100 .
#9600
0#
#9610
1#
b100 -
b000 .
#9620
0#
#9630
1#
b000 -
b100 .
#9640
0#
#9650
1#
b100 -
b000 .
#9660
0#
#9670
1#
b000 -
b100 .
#9680
0#
#9690
1#
b100 -
b000 .
#9700
0#
#9710
1#
b000 -
b100 .
#9720
0#
#9730
1#
b100 -
b000 .
#9740
0#
#9750
1#
b000 -
b100 .
#9760
0#
#9770
1#
b100 -
b000 .
#9780
0#
#9790
1#
b000 -
b100 .
#9800
0#
#9810
1#
b100 -
b000 .
#9820
0#
#9830
1#
b000 -
b100 .
#9840
0#
#9850
1#
b100 -
b000 .
#9860
0#
#9870
1#
b000 -
b100 .
#9880
0#
#9890
1#
b100 -
b000 .
#9900
0#
#9910
1#
b000 -
b100 .
#9920
0#
#9930
1#
b100 -
b000 .
#9940
0#
#9950
1#
b000 -
b100 .
#9960
0#
#9970
1#
b100 -
b000 .
#9980
0#
#9990
1#
b000 -
b100 .
