wave.vcd
$version Generated by VerilatedVcd $end
$timescale 1ps $end
 $scope module TOP $end
  $scope module sc_include_pkg $end
   $var wire 16 M V_CRIT_LOW_ADC [15:0] $end
   $var wire 16 N V_UNSTABLE_MIN_ADC [15:0] $end
   $var wire 16 O V_UNSTABLE_MAX_ADC [15:0] $end
   $var wire 16 P V_CRIT_HIGH_ADC [15:0] $end
  $upscope $end
  $var wire 1 > clk $end
  $var wire 1 ? reset_n $end
  $var wire 1 @ battery_connected $end
  $var wire 1 A battery_full $end
  $var wire 1 B ml_predict_instability $end
  $var wire 16 C grid_voltage_adc [15:0] $end
  $var wire 1 D charge_enable $end
  $var wire 1 E fault_flag $end
  $var wire 3 F current_state [2:0] $end
  $var wire 2 G fault_code [1:0] $end
  $scope module sc_dut $end
   $var wire 1 > clk $end
   $var wire 1 ? reset_n $end
   $var wire 1 @ battery_connected $end
   $var wire 1 A battery_full $end
   $var wire 1 B ml_predict_instability $end
   $var wire 16 C grid_voltage_adc [15:0] $end
   $var wire 1 D charge_enable $end
   $var wire 1 E fault_flag $end
   $var wire 3 F current_state [2:0] $end
   $var wire 2 G fault_code [1:0] $end
   $scope module sc_interf_bus $end
    $var wire 3 9 current_state [2:0] $end
    $var wire 1 : fault_flag $end
    $var wire 2 ; fault_code [1:0] $end
    $var wire 1 < charge_enable $end
    $var wire 1 @ battery_connected $end
    $var wire 1 A battery_full $end
    $var wire 1 B ml_predict_instability $end
    $var wire 16 C grid_voltage_adc [15:0] $end
    $var wire 1 5 data_valid $end
    $var wire 2 = grid_state [1:0] $end
   $upscope $end
   $scope module u_fsm $end
    $var wire 1 > clk $end
    $var wire 1 ? reset_n $end
    $scope module fsm_bus $end
     $var wire 3 9 current_state [2:0] $end
     $var wire 1 : fault_flag $end
     $var wire 2 ; fault_code [1:0] $end
     $var wire 1 < charge_enable $end
     $var wire 1 @ battery_connected $end
     $var wire 1 A battery_full $end
     $var wire 1 B ml_predict_instability $end
     $var wire 16 C grid_voltage_adc [15:0] $end
     $var wire 1 5 data_valid $end
     $var wire 2 = grid_state [1:0] $end
    $upscope $end
    $scope module grid_bus $end
     $var wire 3 9 current_state [2:0] $end
     $var wire 1 : fault_flag $end
     $var wire 2 ; fault_code [1:0] $end
     $var wire 1 < charge_enable $end
     $var wire 1 @ battery_connected $end
     $var wire 1 A battery_full $end
     $var wire 1 B ml_predict_instability $end
     $var wire 16 C grid_voltage_adc [15:0] $end
     $var wire 1 5 data_valid $end
     $var wire 2 = grid_state [1:0] $end
    $upscope $end
    $var wire 3 H next_state [2:0] $end
    $var wire 2 ) grid_state_q [1:0] $end
    $var wire 1 * battery_connected_q $end
    $var wire 1 + fault_flag_q $end
    $var wire 1 , data_valid_q $end
    $var wire 2 - check_wait_count [1:0] $end
   $upscope $end
   $scope module u_grid $end
    $var wire 1 > clk $end
    $var wire 1 ? reset_n $end
    $scope module grid_bus $end
     $var wire 3 9 current_state [2:0] $end
     $var wire 1 : fault_flag $end
     $var wire 2 ; fault_code [1:0] $end
     $var wire 1 < charge_enable $end
     $var wire 1 @ battery_connected $end
     $var wire 1 A battery_full $end
     $var wire 1 B ml_predict_instability $end
     $var wire 16 C grid_voltage_adc [15:0] $end
     $var wire 1 5 data_valid $end
     $var wire 2 = grid_state [1:0] $end
    $upscope $end
    $scope module fsm_bus $end
     $var wire 3 9 current_state [2:0] $end
     $var wire 1 : fault_flag $end
     $var wire 2 ; fault_code [1:0] $end
     $var wire 1 < charge_enable $end
     $var wire 1 @ battery_connected $end
     $var wire 1 A battery_full $end
     $var wire 1 B ml_predict_instability $end
     $var wire 16 C grid_voltage_adc [15:0] $end
     $var wire 1 5 data_valid $end
     $var wire 2 = grid_state [1:0] $end
    $upscope $end
    $var wire 16 . voltage_history[0] [15:0] $end
    $var wire 16 / voltage_history[1] [15:0] $end
    $var wire 16 0 voltage_history[2] [15:0] $end
    $var wire 16 1 voltage_history[3] [15:0] $end
    $var wire 32 2 sum_voltage [31:0] $end
    $var wire 16 3 filter_volt [15:0] $end
    $var wire 2 I grid_state_enum [1:0] $end
    $var wire 3 4 sample_count [2:0] $end
    $var wire 1 5 data_valid $end
    $var wire 1 6 battery_connected_q $end
    $var wire 16 # debug_sum [15:0] $end
    $var wire 16 $ debug_adc [15:0] $end
    $var wire 16 % debug_h0 [15:0] $end
    $var wire 16 & debug_h1 [15:0] $end
    $var wire 16 ' debug_h2 [15:0] $end
    $var wire 16 ( debug_h3 [15:0] $end
    $scope module unnamedblk1 $end
     $var wire 32 7 i [31:0] $end
    $upscope $end
    $scope module unnamedblk2 $end
     $var wire 32 8 i [31:0] $end
    $upscope $end
   $upscope $end
   $scope module u_safety $end
    $var wire 1 > clk $end
    $var wire 1 ? reset_n $end
    $scope module safety_bus $end
     $var wire 3 9 current_state [2:0] $end
     $var wire 1 : fault_flag $end
     $var wire 2 ; fault_code [1:0] $end
     $var wire 1 < charge_enable $end
     $var wire 1 @ battery_connected $end
     $var wire 1 A battery_full $end
     $var wire 1 B ml_predict_instability $end
     $var wire 16 C grid_voltage_adc [15:0] $end
     $var wire 1 5 data_valid $end
     $var wire 2 = grid_state [1:0] $end
    $upscope $end
    $scope module grid_bus $end
     $var wire 3 9 current_state [2:0] $end
     $var wire 1 : fault_flag $end
     $var wire 2 ; fault_code [1:0] $end
     $var wire 1 < charge_enable $end
     $var wire 1 @ battery_connected $end
     $var wire 1 A battery_full $end
     $var wire 1 B ml_predict_instability $end
     $var wire 16 C grid_voltage_adc [15:0] $end
     $var wire 1 5 data_valid $end
     $var wire 2 = grid_state [1:0] $end
    $upscope $end
    $var wire 2 J grid_state_enum [1:0] $end
    $var wire 1 K fault_flag_comb $end
    $var wire 2 L fault_code_comb [1:0] $end
   $upscope $end
  $upscope $end
 $upscope $end
$enddefinitions $end


#42000000
b0000000000000000 #
b0000000000000000 $
b0000000000000000 %
b0000000000000000 &
b0000000000000000 '
b0000000000000000 (
b00 )
0*
0+
0,
b00 -
b0000000000000000 .
b0000000000000000 /
b0000000000000000 0
b0000000000000000 1
b00000000000000000000000000000000 2
b0000000000000000 3
b000 4
05
06
b00000000000000000000000000000000 7
b00000000000000000000000000000000 8
b000 9
0:
b00 ;
0<
b00 =
0>
0?
0@
0A
0B
b0000000000000000 C
0D
0E
b000 F
b00 G
b000 H
b00 I
b00 J
0K
b00 L
b0100011001010000 M
b0100111000100000 N
b1100001101010000 O
b1110101001100000 P
#84000000
b00000000000000000000000000000100 7
1>
#126000000
0>
#168000000
1>
#210000000
0>
#252000000
1>
#294000000
0>
#336000000
1>
#378000000
0>
#420000000
1>
#462000000
0>
1?
#504000000
1>
#546000000
0>
#588000000
1>
#630000000
0>
#672000000
1>
#714000000
0>
#756000000
1>
#798000000
0>
#840000000
1>
#882000000
0>
1@
b0111001011101101 C
#924000000
1*
16
1>
b001 H
#966000000
0>
#1008000000
b0111001011101101 .
b00000000000000000111001011101101 2
b001 4
b001 9
1>
b001 F
b01 L
#1050000000
0>
#1092000000
b0111001011101101 /
b00000000000000001110010111011010 2
b0001110010111011 3
b010 4
b01 ;
1>
b01 G
#1134000000
0>
#1176000000
b0111001011101101 0
b00000000000000010101100011000111 2
b0011100101110110 3
b011 4
1>
#1218000000
0>
#1260000000
b1100101110110100 #
b0111001011101101 $
b0111001011101101 %
b0111001011101101 &
b0111001011101101 '
b0111001011101101 1
b00000000000000011100101110110100 2
b0101011000110001 3
b100 4
15
1>
#1302000000
0>
#1344000000
b0111001011101101 (
1,
b0111001011101101 3
1>
#1386000000
0>
#1428000000
b01 -
1>
#1470000000
0>
#1512000000
b10 -
1>
#1554000000
0>
#1596000000
b11 -
1>
b010 H
#1638000000
0>
#1680000000
b010 9
1<
1>
1D
b010 F
#1722000000
0>
#1764000000
b00 -
1>
#1806000000
0>
#1848000000
1>
#1890000000
0>
#1932000000
1>
#1974000000
0>
#2016000000
1>
#2058000000
0>
#2100000000
1>
#2142000000
0>
#2184000000
1>
#2226000000
0>
#2268000000
1>
#2310000000
0>
#2352000000
1>
#2394000000
0>
#2436000000
1>
#2478000000
0>
#2520000000
1>
#2562000000
0>
b0101101001111110 C
#2604000000
b1011001101000101 #
b0101101001111110 $
b0101101001111110 .
b00000000000000011011001101000101 2
1>
#2646000000
0>
#2688000000
b1001101011010110 #
b0101101001111110 %
b0101101001111110 /
b00000000000000011001101011010110 2
b0110110011010001 3
1>
#2730000000
0>
#2772000000
b1000001001100111 #
b0101101001111110 &
b0101101001111110 0
b00000000000000011000001001100111 2
b0110011010110101 3
1>
#2814000000
0>
#2856000000
b0110100111111000 #
b0101101001111110 '
b0101101001111110 1
b00000000000000010110100111111000 2
b0110000010011001 3
1>
#2898000000
0>
#2940000000
b0101101001111110 (
b0101101001111110 3
1>
