wave.vcd
$version Generated by VerilatedVcd $end
$timescale 1ps $end
 $scope module TOP $end
  $scope module sc_include_pkg $end
   $var wire 32 G V_CRIT_LOW_ADC [31:0] $end
   $var wire 32 H V_UNSTABLE_MIN_ADC [31:0] $end
   $var wire 32 I V_UNSTABLE_MAX_ADC [31:0] $end
   $var wire 32 J V_CRIT_HIGH_ADC [31:0] $end
  $upscope $end
  $var wire 1 = clk $end
  $var wire 1 > reset_n $end
  $var wire 1 ? battery_connected $end
  $var wire 1 @ battery_full $end
  $var wire 1 A ml_predict_instability $end
  $var wire 16 B grid_voltage_adc [15:0] $end
  $var wire 1 C charge_enable $end
  $var wire 1 D fault_flag $end
  $var wire 3 E current_state [2:0] $end
  $var wire 2 F fault_code [1:0] $end
  $scope module sc_dut $end
   $var wire 1 = clk $end
   $var wire 1 > reset_n $end
   $var wire 1 ? battery_connected $end
   $var wire 1 @ battery_full $end
   $var wire 1 A ml_predict_instability $end
   $var wire 16 B grid_voltage_adc [15:0] $end
   $var wire 1 C charge_enable $end
   $var wire 1 D fault_flag $end
   $var wire 3 E current_state [2:0] $end
   $var wire 2 F fault_code [1:0] $end
   $scope module sc_interf_bus $end
    $var wire 3 8 current_state [2:0] $end
    $var wire 1 9 fault_flag $end
    $var wire 2 : fault_code [1:0] $end
    $var wire 1 ; charge_enable $end
    $var wire 1 ? battery_connected $end
    $var wire 1 @ battery_full $end
    $var wire 1 A ml_predict_instability $end
    $var wire 16 B grid_voltage_adc [15:0] $end
    $var wire 1 4 data_valid $end
    $var wire 2 < grid_state [1:0] $end
   $upscope $end
   $scope module u_fsm $end
    $var wire 1 = clk $end
    $var wire 1 > reset_n $end
    $scope module fsm_bus $end
     $var wire 3 8 current_state [2:0] $end
     $var wire 1 9 fault_flag $end
     $var wire 2 : fault_code [1:0] $end
     $var wire 1 ; charge_enable $end
     $var wire 1 ? battery_connected $end
     $var wire 1 @ battery_full $end
     $var wire 1 A ml_predict_instability $end
     $var wire 16 B grid_voltage_adc [15:0] $end
     $var wire 1 4 data_valid $end
     $var wire 2 < grid_state [1:0] $end
    $upscope $end
    $scope module grid_bus $end
     $var wire 3 8 current_state [2:0] $end
     $var wire 1 9 fault_flag $end
     $var wire 2 : fault_code [1:0] $end
     $var wire 1 ; charge_enable $end
     $var wire 1 ? battery_connected $end
     $var wire 1 @ battery_full $end
     $var wire 1 A ml_predict_instability $end
     $var wire 16 B grid_voltage_adc [15:0] $end
     $var wire 1 4 data_valid $end
     $var wire 2 < grid_state [1:0] $end
    $upscope $end
    $var wire 3 # next_state [2:0] $end
    $var wire 2 ( grid_state_q [1:0] $end
    $var wire 1 ) battery_connected_q $end
    $var wire 1 * fault_flag_q $end
    $var wire 1 + data_valid_q $end
    $var wire 2 , check_wait_count [1:0] $end
   $upscope $end
   $scope module u_grid $end
    $var wire 1 = clk $end
    $var wire 1 > reset_n $end
    $scope module grid_bus $end
     $var wire 3 8 current_state [2:0] $end
     $var wire 1 9 fault_flag $end
     $var wire 2 : fault_code [1:0] $end
     $var wire 1 ; charge_enable $end
     $var wire 1 ? battery_connected $end
     $var wire 1 @ battery_full $end
     $var wire 1 A ml_predict_instability $end
     $var wire 16 B grid_voltage_adc [15:0] $end
     $var wire 1 4 data_valid $end
     $var wire 2 < grid_state [1:0] $end
    $upscope $end
    $scope module fsm_bus $end
     $var wire 3 8 current_state [2:0] $end
     $var wire 1 9 fault_flag $end
     $var wire 2 : fault_code [1:0] $end
     $var wire 1 ; charge_enable $end
     $var wire 1 ? battery_connected $end
     $var wire 1 @ battery_full $end
     $var wire 1 A ml_predict_instability $end
     $var wire 16 B grid_voltage_adc [15:0] $end
     $var wire 1 4 data_valid $end
     $var wire 2 < grid_state [1:0] $end
    $upscope $end
    $var wire 32 - voltage_history[0] [31:0] $end
    $var wire 32 . voltage_history[1] [31:0] $end
    $var wire 32 / voltage_history[2] [31:0] $end
    $var wire 32 0 voltage_history[3] [31:0] $end
    $var wire 32 1 sum_voltage [31:0] $end
    $var wire 32 2 filter_volt [31:0] $end
    $var wire 2 $ grid_state_enum [1:0] $end
    $var wire 3 3 sample_count [2:0] $end
    $var wire 1 4 data_valid $end
    $var wire 1 5 battery_connected_q $end
    $scope module unnamedblk1 $end
     $var wire 32 6 i [31:0] $end
    $upscope $end
    $scope module unnamedblk2 $end
     $var wire 32 7 i [31:0] $end
    $upscope $end
   $upscope $end
   $scope module u_safety $end
    $var wire 1 = clk $end
    $var wire 1 > reset_n $end
    $scope module safety_bus $end
     $var wire 3 8 current_state [2:0] $end
     $var wire 1 9 fault_flag $end
     $var wire 2 : fault_code [1:0] $end
     $var wire 1 ; charge_enable $end
     $var wire 1 ? battery_connected $end
     $var wire 1 @ battery_full $end
     $var wire 1 A ml_predict_instability $end
     $var wire 16 B grid_voltage_adc [15:0] $end
     $var wire 1 4 data_valid $end
     $var wire 2 < grid_state [1:0] $end
    $upscope $end
    $scope module grid_bus $end
     $var wire 3 8 current_state [2:0] $end
     $var wire 1 9 fault_flag $end
     $var wire 2 : fault_code [1:0] $end
     $var wire 1 ; charge_enable $end
     $var wire 1 ? battery_connected $end
     $var wire 1 @ battery_full $end
     $var wire 1 A ml_predict_instability $end
     $var wire 16 B grid_voltage_adc [15:0] $end
     $var wire 1 4 data_valid $end
     $var wire 2 < grid_state [1:0] $end
    $upscope $end
    $var wire 2 % grid_state_enum [1:0] $end
    $var wire 1 & fault_flag_comb $end
    $var wire 2 ' fault_code_comb [1:0] $end
   $upscope $end
  $upscope $end
 $upscope $end
$enddefinitions $end


#42000000
b000 #
b00 $
b00 %
0&
b00 '
b00 (
0)
0*
0+
b00 ,
b00000000000000000000000000000000 -
b00000000000000000000000000000000 .
b00000000000000000000000000000000 /
b00000000000000000000000000000000 0
b00000000000000000000000000000000 1
b00000000000000000000000000000000 2
b000 3
04
05
b00000000000000000000000000000000 6
b00000000000000000000000000000000 7
b000 8
09
b00 :
0;
b00 <
0=
0>
0?
0@
0A
b0000000000000000 B
0C
0D
b000 E
b00 F
b00000000000000001010010000010000 G
b00000000000000001101001011110000 H
b00000000000000010010010011111000 I
b00000000000000010011100010000000 J
#84000000
b00000000000000000000000000000100 6
1=
#126000000
0=
#168000000
1=
#210000000
0=
#252000000
1=
#294000000
0=
#336000000
1=
#378000000
0=
#420000000
1=
#462000000
0=
1>
#504000000
1=
#546000000
0=
#588000000
1=
#630000000
0=
#672000000
1=
#714000000
0=
#756000000
1=
#798000000
0=
#840000000
1=
#882000000
0=
1?
b1111111101100101 B
#924000000
b001 #
1)
15
1=
#966000000
0=
#1008000000
b01 '
b00000000000000001111111101100101 -
b001 3
b001 8
1=
b001 E
#1050000000
0=
#1092000000
b00000000000000001111111101100101 .
b010 3
b01 :
1=
b01 F
#1134000000
0=
#1176000000
b00000000000000001111111101100101 /
b00000000000000101111111000101111 1
b011 3
1=
#1218000000
0=
#1260000000
b01 $
b00000000000000001111111101100101 0
b00000000000000111111110110010100 1
b00000000000000001011111110001011 2
b100 3
14
1=
#1302000000
0=
#1344000000
b00 $
b01 %
b10 '
1+
b00000000000000001111111101100101 2
b01 <
1=
#1386000000
0=
#1428000000
b00 %
b01 '
b01 (
b01 ,
b10 :
b00 <
1=
b10 F
#1470000000
0=
#1512000000
b00 (
b10 ,
b01 :
1=
b01 F
#1554000000
0=
#1596000000
b010 #
b11 ,
1=
#1638000000
0=
#1680000000
b010 8
1;
1=
1C
b010 E
#1722000000
0=
#1764000000
b00 ,
1=
#1806000000
0=
#1848000000
1=
#1890000000
0=
#1932000000
1=
#1974000000
0=
#2016000000
1=
#2058000000
0=
#2100000000
1=
#2142000000
0=
#2184000000
1=
#2226000000
0=
#2268000000
1=
#2310000000
0=
#2352000000
1=
#2394000000
0=
#2436000000
1=
#2478000000
0=
#2520000000
1=
#2562000000
0=
b1100100100011001 B
#2604000000
b00000000000000001100100100011001 -
b00000000000000111100011101001000 1
1=
#2646000000
0=
#2688000000
b00000000000000001100100100011001 .
b00000000000000111001000011111100 1
b00000000000000001111000111010010 2
1=
#2730000000
0=
#2772000000
b00000000000000001100100100011001 /
b00000000000000110101101010110000 1
b00000000000000001110010000111111 2
1=
#2814000000
0=
#2856000000
b00000000000000001100100100011001 0
b00000000000000110010010001100100 1
b00000000000000001101011010101100 2
1=
#2898000000
0=
#2940000000
b01 $
b00000000000000001100100100011001 2
1=
#2982000000
0=
#3024000000
b01 %
b10 '
b01 <
1=
#3066000000
0=
#3108000000
b011 #
b01 (
b10 :
1=
b10 F
#3150000000
0=
#3192000000
b011 8
0;
1=
0C
b011 E
